{
  "description": "A basic cmake project that does nothing fancy.",
  "directories": [
    "src",
    "include"
  ],
  "files": [
    {
      "name": "CMakeLists.txt",
      "lines": [
        {
          "name": "version",
          "description": "Set the cmake minimal required version.",
          "required": true,
          "lines": [
            "# The cmake_minimum_required directive is needed by cmake to determine the standard that it should use.",
            "# Cmake will NOT run without this!",
            "# Force modern cmake with minimum version of 3.0 and maximum version of 3.16.",
            "# Using the version-range notation cmake selects the newest standard in the range that it can support.",
            "cmake_minimum_required(VERSION 3.0...3.16)"
          ]
        },
        {
          "name": "version fix",
          "description": "Provide a fix for some problems on certain platforms that arise from policy and software version missmatch",
          "required": false,
          "lines": [
            "# This is supposed to prevent problems with some platforms by setting the policiy version to the installed version.",
            "# This construct is not required but it can help reduce problems!",
            "if(${CMAKE_VERSION} VERSION_LESS 3.16)",
            "    cmake_policy(VERSION ${CMAKE_MAJOR_VERSION}.${CMAKE_MINOR_VERSION})",
            "else()",
            "    cmake_policy(VERSION 3.16)",
            "endif()"
          ]
        },
        {
          "name": "project",
          "description": "Set the project with name version and description.",
          "required": true,
          "variables": [
            {
              "name": "PROJECTNAME",
              "hint": "Name of the project.",
              "optional": false
            },
            {
              "name": "PROJECTDESCRIPTION",
              "hint": "Description of the project.",
              "optional": true
            },
            {
              "name": "LANGUAGES",
              "hint": "Which languages are used in this project.",
              "optional": false
            }
          ],
          "lines": [
            "# The project directive sets information about the project.",
            "# VERSION:     You can change the version at will and it sets cmake internal variables to make automatic configuration easier.",
            "# DESCRIPTION: A test to descibe the project in a few words. This seems to be purely for convinience.",
            "# LANGUAGES:   This parameter sets the project languages. Setting this helps cmake figuing out the right compiler and toolchain",
            "# HOMEPAGE:    If your project has a Homepage you can set it too, but this is nor neccesary.",
            "project(",
            "    @PROJECTNAME@",
            "    VERSION 0.1",
            "    DESCRIPTION @PROJECTDESCRIPTION@",
            "    LANGUAGES @LANGUAGES@",
            ")"
          ]
        }
      ]
    }
  ]
}